{
  "tests" : [ {
    "name" : "z1Mobile.gspec",
    "startedAt" : 1636814272627,
    "endedAt" : 1636814279696,
    "failed" : false,
    "statistic" : {
      "passed" : 27,
      "errors" : 0,
      "warnings" : 0,
      "total" : 27
    },
    "testId" : "1-z1mobile.gspec",
    "duration" : 7069,
    "failed" : false
  } ]
}